<?xml version="1.0" encoding="utf-8"?>
<!-- Generator: Adobe Illustrator 19.0.0, SVG Export Plug-In . SVG Version: 6.00 Build 0)  -->
<svg version="1.1" id="Layer_1" xmlns="http://www.w3.org/2000/svg" xmlns:xlink="http://www.w3.org/1999/xlink" x="0px" y="0px"
	 viewBox="0 0 37.6 22.3" style="enable-background:new 0 0 37.6 22.3;" xml:space="preserve">
<g id="XMLID_1_">
	<path id="XMLID_3_" d="M8.5,9.9c-0.1,0.1-0.4,0.4-0.9,0.7c-0.5,0.4-0.8,0.6-1,0.6c-0.1,0-0.3,0.1-0.4,0.1c-0.2,0.1-0.3,0.1-0.4,0.1
		c-0.3,0.5-0.6,0.9-0.9,1s-0.7,0.3-1.3,0.3c-0.1,0-0.2-0.1-0.2-0.2c0-0.3,0.2-0.5,0.7-0.8s0.9-0.5,1.4-0.7c0.2-0.3,0.3-0.7,0.3-1
		c0-0.1,0-0.2,0-0.4c0-0.2,0-0.3,0-0.4c-0.1,0.1-0.5,0.3-1,0.7c-0.6,0.4-0.9,0.6-1.1,0.6c0,0,0,0,0,0C3.6,10.2,3.8,10.1,4,10
		c0.3-0.2,0.6-0.5,1.1-1s0.8-0.8,1.1-0.9c0,0,0-0.1,0.1-0.2c0-0.1,0.1-0.1,0.1-0.2c0,0,0.1-0.1,0.1-0.2s0.1-0.1,0.1-0.2
		c0,0,0.1-0.1,0.1-0.1c0.1-0.1,0.1-0.1,0.2-0.1c0.1,0,0.1,0,0.2,0c0.1,0,0.2,0,0.3,0.1c0.1,0.1,0.2,0.1,0.2,0.2
		c0,0.4-0.4,0.8-1.1,1.1C6.3,8.6,6.3,8.8,6.2,9C6.1,9.1,6.1,9.3,6.1,9.4c0,0.1,0,0.2,0,0.3c0,0.1,0,0.2,0,0.3c0,0.2-0.1,0.5-0.2,0.8
		c0.1,0,0.2-0.1,0.4-0.1c0.2-0.1,0.4-0.1,0.5-0.2s0.3-0.1,0.4-0.2c0.1,0,0.3-0.1,0.5-0.3C8.1,10,8.3,9.9,8.5,9.9L8.5,9.9z"/>
	<path id="XMLID_5_" d="M36.9,3.3c0,0-0.1,0.1-0.2,0.1c-0.1,0.1-0.3,0.1-0.5,0.1c-0.2,0-0.4,0.1-0.6,0.1c-0.2,0-0.3,0.1-0.5,0.1
		c-0.2,0-0.3,0-0.3,0c-2.1,0.3-4.4,0.5-7,0.7c-0.8,0-2.1,0.2-3.9,0.4c-1.8,0.2-3.2,0.3-4.1,0.3c-0.1,0-0.7-0.1-1.8-0.2
		c-1.1-0.1-1.7-0.2-1.8-0.2c-0.5,0.3-1,0.6-1.4,1c-0.4,0.4-0.9,0.9-1.5,1.5c-0.5,0.6-0.9,1-1.2,1.2c-0.5,0.5-1.2,1.2-2.1,2
		c-0.1,0.1-0.3,0.3-0.8,0.7s-0.8,0.8-1.2,1.1c-0.3,0.3-0.6,0.5-0.8,0.5c-0.2,0-0.3-0.1-0.3-0.3c0-0.2,0.1-0.5,0.4-0.7
		c0.9-0.9,1.5-1.4,1.8-1.6c0.3-0.2,0.6-0.4,0.9-0.8c0.4-0.4,0.6-0.6,0.6-0.6c0.1-0.1,0.2-0.2,0.5-0.4c0.2-0.2,0.4-0.4,0.5-0.5
		c0.3-0.3,0.7-0.8,1.1-1.4c0.5-0.6,0.8-1.1,1.1-1.4c-1.8-0.5-3.2-0.7-4.2-0.7C9.4,4.2,9,4.2,8.3,4.1C7.7,4.1,7.2,4,6.9,4
		c-0.3,0-0.7,0-1.1,0c-0.4,0-0.9,0.1-1.6,0.1C3.6,4.2,3.1,4.3,2.7,4.4C2.3,4.6,2.1,4.8,2.1,5c0,0.1,0.1,0.2,0.4,0.4
		c0.2,0.1,0.4,0.2,0.4,0.4C2.8,5.8,2.7,5.8,2.6,5.8C2.4,5.8,2,5.7,1.5,5.5C1,5.2,0.7,5,0.7,4.8c0-0.2,0.4-0.4,1.1-0.7
		C2.1,4.1,2.5,4,2.9,3.9C3.6,3.8,4.7,3.7,6,3.7h0.5c0.5,0,1.2,0,2.1,0.1c0.9,0.1,1.7,0.1,2.2,0.1c0.5,0,1.1,0.1,2,0.2
		s1.4,0.3,1.7,0.3c0.2-0.2,0.6-0.4,1-0.7c0.4-0.3,0.7-0.5,0.9-0.6c0.1-0.1,0.4-0.3,0.9-0.8s0.9-0.7,1.2-0.9c0.3-0.2,0.7-0.3,1.1-0.3
		c0.1,0,0.3,0,0.4,0.1c0.1,0.1,0.2,0.1,0.2,0.3c0,0.2-0.3,0.6-0.8,0.9c-0.5,0.4-1.2,0.8-2,1.3c-0.8,0.5-1.2,0.7-1.3,0.8
		c0.4,0,1,0.1,1.8,0.1s1.4,0.1,1.9,0.1c0.6,0,1.5-0.1,2.6-0.2c1.1-0.1,1.8-0.2,2-0.2c0.5,0,1.1-0.1,2-0.1c0.8,0,1.4,0,1.6,0
		c0.8,0,1.9-0.2,3.4-0.4c1.9-0.3,2.9-0.4,3.1-0.4c0.1,0,0.3-0.1,0.6-0.1c0.3-0.1,0.5-0.1,0.7-0.2C36,3.1,36.2,3,36.4,3
		C36.7,3,36.9,3.1,36.9,3.3z"/>
	<path id="XMLID_7_" d="M17.5,9.9c0,0,0,0.1-0.1,0.1c-0.1,0.1-0.1,0.1-0.2,0.2c-0.1,0.1-0.1,0.1-0.2,0.1c-0.3,0.3-0.7,0.5-1.2,0.6
		c-0.5,0.2-1,0.2-1.4,0.2c-0.7,0-1.1-0.5-1.2-1.5c-0.4,0.4-0.7,0.6-1,0.6c0,0,0,0,0,0c0,0,0.1-0.1,0.2-0.2s0.3-0.3,0.5-0.4
		c0.2-0.2,0.3-0.3,0.3-0.3c0.1-0.1,0.2-0.3,0.3-0.6c0.1-0.3,0.2-0.5,0.3-0.6c0.3-0.3,0.5-0.4,0.6-0.5c0.1-0.1,0.3-0.2,0.6-0.3
		c0.2-0.1,0.5-0.2,0.8-0.2c0.7,0,1.1,0.2,1.1,0.7c0,0.3-0.3,0.6-0.8,1S15.3,9.5,15,9.7c-0.7,0.3-1,0.4-1.1,0.5c0,0,0,0.1,0,0.1
		c0,0.1,0.1,0.3,0.2,0.3c0.2,0.1,0.3,0.1,0.5,0.1c0.3,0,0.7-0.1,1.2-0.2s0.8-0.3,1.1-0.4S17.4,9.9,17.5,9.9
		C17.4,9.9,17.5,9.9,17.5,9.9z M16.2,8.1c0-0.1,0-0.2-0.1-0.2c-0.1-0.1-0.2-0.1-0.3-0.1c-0.3,0-0.5,0.1-0.7,0.2
		c-0.2,0.1-0.4,0.3-0.6,0.6S14,9.1,14,9.3c0,0,0,0.1,0.1,0.1c0.2,0,0.6-0.2,1.1-0.5C15.9,8.6,16.2,8.3,16.2,8.1z"/>
	<path id="XMLID_10_" d="M25.4,9.9c0,0.2-0.5,0.5-1.6,0.9c-1.1,0.4-1.8,0.6-2.1,0.6c-0.2,0-0.3-0.1-0.3-0.2c0-0.3,0.2-0.6,0.5-0.9
		c0.3-0.3,0.7-0.6,1-0.9s0.5-0.5,0.5-0.6c0-0.2,0-0.3-0.1-0.3c-0.2,0-0.4,0.1-0.6,0.2c-0.2,0.1-0.4,0.2-0.7,0.4s-0.5,0.3-0.5,0.3
		c-0.1,0.1-0.4,0.2-0.7,0.4s-0.7,0.4-0.9,0.5c-0.5,0.3-0.9,0.6-1.4,0.9c-0.5,0.3-1,0.8-1.6,1.3c-0.6,0.5-1.1,0.8-1.3,1
		c-0.2,0.1-0.3,0.3-0.5,0.4c-0.2,0.2-0.3,0.3-0.4,0.4c-0.1,0.1-0.3,0.3-0.5,0.5c-0.2,0.2-0.4,0.4-0.4,0.5c-0.1,0.2-0.6,0.6-1.4,1.4
		c-0.1,0.1-0.6,0.6-1.5,1.6c-0.9,1-1.6,1.7-2.2,2.2c-0.6,0.5-1.2,0.9-1.7,1.1c-0.3,0.1-0.5,0.2-0.6,0.2c-0.1,0-0.1,0-0.1-0.1
		c0-0.1-0.1-0.1-0.1-0.2c0-0.1,0-0.3,0.1-0.3c0.1-0.1,0.2-0.1,0.2-0.2c0.1,0,0.2,0,0.4-0.1c0.2,0,0.3,0,0.3,0
		c0.3-0.1,0.6-0.4,1.1-0.9s0.8-0.8,1-0.9c0.2-0.2,0.5-0.5,0.9-0.9c0.4-0.4,0.6-0.6,0.7-0.7c0.2-0.2,0.8-0.8,1.9-2
		c1.1-1.1,1.9-1.9,2.5-2.5c0.2-0.2,0.5-0.5,1-1c0.2-0.3,0.6-0.6,1.1-1c0.5-0.4,0.8-0.6,0.9-0.7c0,0,0.2-0.2,0.5-0.5
		c0.3-0.3,0.5-0.5,0.7-0.5c0.1,0,0.3-0.1,0.6-0.2c0.4-0.1,0.6-0.2,0.8-0.3c0.2-0.1,0.5-0.3,1.1-0.7c0.6-0.4,1.1-0.7,1.6-0.9
		c0.5-0.3,0.9-0.4,1.1-0.4c0.2,0,0.3,0,0.3,0.1c0,0.2-0.1,0.3-0.3,0.5c-0.2,0.2-0.4,0.4-0.6,0.5c0.2,0.1,0.3,0.3,0.3,0.5
		c0,0.3-0.1,0.5-0.4,0.9c-0.3,0.3-0.6,0.6-0.9,0.8c-0.3,0.2-0.4,0.4-0.4,0.5c0,0.2,0.1,0.2,0.4,0.2c0.2,0,0.5-0.1,0.9-0.2
		c0.4-0.2,0.8-0.3,1.1-0.5L25.4,9.9C25.4,9.8,25.4,9.8,25.4,9.9z"/>
	<path id="XMLID_12_" d="M36.4,1.4c0,0.1,0,0.2-0.1,0.2C36.2,1.8,36,2,35.6,2.3c-0.3,0.3-0.5,0.4-0.6,0.5c-0.2,0.2-0.5,0.4-0.9,0.8
		c-0.4,0.3-0.7,0.6-0.9,0.7c0,0.1-0.5,0.5-1.2,1c-0.8,0.6-1.5,1.1-2.1,1.6c-0.6,0.5-0.9,0.8-0.9,1l0.1,0.1c0.1,0,0.3,0,0.6-0.1
		c0.3-0.1,0.5-0.1,0.6-0.1c0.3,0,0.4,0.1,0.4,0.3c0,0.4-0.1,0.7-0.2,1c-0.2,0.3-0.3,0.6-0.5,0.8c-0.2,0.2-0.4,0.4-0.5,0.5
		c-0.2,0.2-0.2,0.3-0.2,0.4c0.1,0.2,0.3,0.3,0.5,0.3c0.3,0,0.8-0.2,1.6-0.6c0.8-0.4,1.2-0.6,1.2-0.6s0.1,0,0.1,0
		c-0.1,0.2-0.2,0.3-0.5,0.5c-0.3,0.1-0.6,0.3-1,0.4c-0.4,0.1-0.6,0.2-0.7,0.3c-0.1,0-0.1,0.1-0.2,0.1c-0.1,0.1-0.2,0.1-0.3,0.2
		c-0.1,0-0.2,0.1-0.3,0.1c-0.2,0-0.4-0.1-0.6-0.2c-0.2-0.1-0.3-0.3-0.3-0.5c0-0.2,0.2-0.6,0.6-1.1s0.6-0.8,0.6-1
		c0-0.1-0.1-0.3-0.3-0.3c-0.1,0-0.2,0.1-0.4,0.1c-0.2,0-0.3,0-0.4,0c-0.6,0.2-1.1,0.6-1.6,1.2c0,0-0.1,0.2-0.3,0.4
		c-0.2,0.2-0.3,0.4-0.4,0.6c-0.1,0.2-0.3,0.3-0.4,0.5c-0.2,0.1-0.3,0.2-0.4,0.2c-0.1,0-0.1-0.1-0.1-0.2c0,0,0.1-0.2,0.3-0.5
		c0.2-0.3,0.4-0.5,0.6-0.8c0.2-0.3,0.3-0.5,0.4-0.5c-0.8,0.6-1.5,1-2.1,1.2c-0.1,0-0.2,0-0.2-0.1c0-0.1,0.1-0.2,0.3-0.3
		c1.1-0.6,1.9-1.1,2.5-1.7c0.2-0.2,0.5-0.4,0.9-0.6C28.7,7.4,29,7.2,29.2,7c0.1-0.1,0.2-0.2,0.3-0.4c0.1-0.2,0.2-0.3,0.2-0.3
		c0.4-0.4,1-0.9,1.7-1.5c0.2-0.1,0.4-0.4,0.7-0.6c0.3-0.3,0.5-0.5,0.7-0.6c0,0,0.2-0.1,0.3-0.3c0.2-0.2,0.4-0.3,0.5-0.4
		c0.1-0.1,0.3-0.3,0.5-0.5s0.4-0.4,0.6-0.5s0.3-0.3,0.5-0.4c0.2-0.1,0.4-0.2,0.5-0.3s0.3-0.1,0.4-0.1c0.1,0,0.1,0,0.2,0.1
		C36.4,1.3,36.4,1.3,36.4,1.4z"/>
	<path id="XMLID_14_" d="M34.7,10.4c0,0.1-0.1,0.3-0.3,0.6c0,0.1-0.1,0.2-0.3,0.2c-0.2,0-0.4,0-0.6-0.1c-0.2-0.1-0.3-0.2-0.3-0.4
		c0,0,0.2-0.2,0.5-0.4c0.3-0.2,0.5-0.4,0.6-0.4c0,0,0.1,0.1,0.1,0.2c0.1,0.1,0.1,0.2,0.2,0.3L34.7,10.4z"/>
</g>
</svg>
