<?xml version="1.0" encoding="utf-8"?>
<!-- Generator: Adobe Illustrator 19.0.0, SVG Export Plug-In . SVG Version: 6.00 Build 0)  -->
<svg version="1.1" id="Layer_1" xmlns="http://www.w3.org/2000/svg" xmlns:xlink="http://www.w3.org/1999/xlink" x="0px" y="0px"
	 viewBox="0 0 51.2 18.3" style="enable-background:new 0 0 51.2 18.3;" xml:space="preserve">
<style type="text/css">
	.st0{fill:#E8E8E8;}
</style>
<g id="XMLID_15_">
	<g id="XMLID_155_">
		<path id="XMLID_156_" class="st0" d="M46,8.6c0.2-0.7-0.6-0.8-1-1c-0.6-0.2-0.9-0.9-1.5-1.1c-0.9-0.4-1.7-1.2-2.8-1.2
			c-1.6-1.1-3.6-0.8-5.4-1.4c-1.5,0-2.9,0-4.4-0.2c-1.2,0.2-2.4,0.4-3.4,0.8c-0.9,0.5-1.9,0.1-2.8,0.6c-1.6,0.5-3.1,1-4.7,1.5
			c-0.9,0.6-1.9,0.9-2.9,1.3c-1.5,0.5-3,0-4.4,0c-0.9-0.1-1.7-0.2-2.6-0.5c-0.4-0.1-0.9,0-1.2-0.3C7.6,7.4,6.1,6.8,5.2,7.9
			C4.9,8.5,5.4,8.6,5.8,8.7c1,0,1.9-0.2,2.9-0.1c1.7,0.4,3.3,0.6,5,0.7c1.3,0,2.5,0.4,3.7,0.4c0.7,1.1,1.8,1.7,2.8,2.4
			c1.7,1.3,3.9,1.8,6.1,2c1,0.4,2.1,0.3,3.2,0.6c1.8,0.4,3.7-0.1,5.6,0.2c2.1-0.2,4-1.3,5.9-2.2c0.8-0.6,1.7-1,2.4-1.6
			C44.3,10.4,45.2,9.5,46,8.6z M42.5,9c-0.5,0.2-0.9,0.6-1.3,0.8c-0.6,0.2-1-0.3-1.6-0.5c-0.9-0.3-1.9-0.5-2.9-0.8
			c0-0.1,0-0.3-0.1-0.4c1.5-0.2,3,0.3,4.5,0.3C41.7,8.5,42.3,8.4,42.5,9z M40.5,6.6c-0.1,0.1-0.2,0.3-0.4,0.3c-0.9,0-1.9,0-2.8,0.1
			c0.1-0.6,0.3-1.5,1-1.5c0.8,0.2,1.5,0.5,2.2,0.9C40.4,6.4,40.5,6.6,40.5,6.6z M39.1,10.8c-0.2,0.2-0.4,0.5-0.7,0.6
			c-0.4,0.2-0.7,0.6-1.1,0.3c-0.5-0.7-1.4-0.9-2.1-1.4c-0.6-0.5-1.3-0.6-2-0.9c-0.4-0.4-1-0.3-1.5-0.4c-0.3,0.2,0,0.4,0.2,0.5
			c1.1,0.4,2.1,0.9,3.1,1.5c0.6,0.2,1,0.7,1.1,1.3c-0.3,0.1-0.5,0.2-0.8,0.2c-0.5-0.2-1-0.6-1.6-0.6c-0.5-0.7-1.6-0.8-2-1.6
			c-0.4-0.7-1.6-0.6-1.8-1.4c1.4-0.2,2.8-0.4,4.2-0.6c1.3,1.1,3.2,1,4.6,1.9C38.8,10.3,39,10.6,39.1,10.8z M37.1,5.2
			C36.5,6,36,7.2,34.8,7.1c-0.1-0.6,0.6-1,0.8-1.5C35.8,4.9,36.6,5.2,37.1,5.2z M34.9,5c-0.4,0.8-1,1.5-1.5,2.2
			c-0.7-0.1-1.4,0.2-2.1,0.4c0-0.2,0-0.5,0.1-0.7c1-0.5,1.9-1.3,2.7-2.2C34.4,4.8,34.9,4.7,34.9,5z M33.1,4.9
			c-0.6,0.7-1.3,1.3-2.1,1.8c-0.6,0.4-1.1,1.2-1.9,1c0.2-0.7,0.9-1.2,1.3-1.8c0.3-0.3,0.3-0.8,0.6-1.1c0.7-0.1,1.4,0,2.1-0.2
			C33.1,4.7,33.1,4.9,33.1,4.9z M33,12.9c-0.3,0.1-0.5,0.2-0.8,0.2c-0.7-0.1-1.5,0.1-2.1-0.4c-0.8-0.8-1.6-1.5-2.3-2.4
			c-0.3-0.4-0.9-0.2-1.3-0.3c0.6,0.9,1.5,1.7,2.1,2.6c0.2,0.3-0.1,0.3-0.3,0.2c-1.1-0.5-1.9-1.4-3-1.9c-0.1-0.3-0.2-0.7-0.6-0.8
			c-0.4-0.6,0.4-0.8,0.9-0.8c0.9,0,1.8-0.1,2.7,0c0.6,0.5,1.3,0.9,1.9,1.4c0.8,0.9,1.8,1.4,2.8,2C33,12.6,33,12.8,33,12.9z
			 M29.7,5.3c-0.1,0.5-0.3,0.9-0.7,1.2c-0.5,0.4-0.8,1-1.4,1.3C27,8.1,26.4,8,25.8,8c0.9-0.9,1.8-1.8,2.8-2.7c0.2-0.2,0.5,0,0.7,0
			C29.4,5.4,29.9,5,29.7,5.3z M27.3,5.6c-0.5,0.8-1.2,1.3-1.9,1.9C25.1,8,24.5,8.1,24,8.2c0-0.2,0-0.4,0.2-0.5
			c0.3-0.4,0.5-0.9,0.8-1.3c0.7-0.5,1.5-0.8,2.4-0.9L27.3,5.6z M26.2,12.6c-0.5,0.1-0.9-0.4-1.5-0.3c-0.9-0.1-1.8-0.8-2-1.6
			c-0.3-0.2-0.5-0.6-0.6-1c-0.2-0.2-0.8-0.3-0.8,0.2c0.3,0.5,0.5,1,0.7,1.5c-0.2,0-0.4,0-0.5-0.2c-0.5-0.6-1.8-0.7-1.8-1.6
			c0.7-0.1,1.5-0.1,2.2-0.1c0.4,0.2,0.8,0.3,1.3,0.2c0.4,0.5,1,1,1.3,1.5C24.9,11.8,25.8,12,26.2,12.6z M23.7,6.8
			c-0.2,0.6-0.6,1-1,1.5c-0.6,0.2-1.4,0.3-2-0.1c0.4-0.8,1.7-0.8,2.3-1.4C23.3,6.7,23.9,6.3,23.7,6.8z"/>
	</g>
</g>
</svg>
